{
    "current_page": 1,
    "data": [
        {
            "date_time": "2024-09-14 13:36:25",
            "updated_at": "2024-08-05T13:36:25.000000Z",
            "created_at": "2024-08-05T13:36:25.000000Z",
            "deleted_at": null,
            "uuid": "f7b3b3b0-0b7b-11ec-82a8-0242ac130003",
            "amount": "7.00",
            "note": "test",
            "type": "incoming",
            "warranty": 0,
            "transfer": false,
            "confirmed": true,
            "planned": false,
            "installment": false,
            "category_id": 12,
            "account_id": 1,
            "transfer_id": null,
            "transfer_relation": null,
            "currency_id": 1,
            "payment_type": 1,
            "payee_id": null,
            "waranty": true,
            "geolocation": null,
            "workspace_id": 1,
            "exclude_from_stats": false,
            "labels": [],
            "wallet": {
                "id": 1,
                "uuid": "fa05e39d-1c74-4d7f-afbb-c3215d8096c2",
                "name": "test",
                "color": "#e6e632ff",
                "type": "credit-card-revolving",
                "installement": 0,
                "installement_value": null,
                "credit_limit": null,
                "currency": "2",
                "balance": "0.00",
                "exclude_from_stats": 0,
                "invoice_date": null,
                "payment_account": null,
                "closing_date": null,
                "sorting": null,
                "workspace_id": 1,
                "created_at": "2024-08-05T13:36:25.000000Z",
                "updated_at": "2024-08-05T13:36:25.000000Z",
                "deleted_at": null
            },
            "sub_category": {
                "id": 12,
                "created_at": "2024-08-05T13:36:25.000000Z",
                "updated_at": "2024-08-05T13:36:25.000000Z",
                "date_time": null,
                "uuid": "635bd341e3f4d",
                "name": "jewelry & accessories",
                "category_id": 2,
                "deleted_at": null,
                "exclude_from_stats": 0,
                "slug": "jewelry-accessories",
                "category": {
                    "id": 2,
                    "created_at": "2024-08-05T13:36:25.000000Z",
                    "updated_at": "2024-08-05T13:36:25.000000Z",
                    "date_time": null,
                    "uuid": "635bd34082904",
                    "name": "shopping",
                    "icon": "fas fa-shopping-cart",
                    "deleted_at": null,
                    "type": "expenses",
                    "slug": "shopping"
                }
            },
            "payee": null,
            "currency": {
                "id": 1,
                "created_at": "2024-08-05T13:36:25.000000Z",
                "updated_at": "2024-08-05T13:36:25.000000Z",
                "date_time": null,
                "name": "United States Dollar",
                "deleted_at": null,
                "label": "USD",
                "icon": "$",
                "exchange_rate": null,
                "slug": "united-states-dollar"
            },
            "payment_type": {
                "id": 1,
                "created_at": "2024-08-05T13:36:25.000000Z",
                "updated_at": "2024-08-05T13:36:25.000000Z",
                "date_time": null,
                "uuid": "cfd2cd32-d5df-4404-b12c-349fef83fafc",
                "name": "Credit Card",
                "deleted_at": null,
                "slug": "credit-card"
            }
        }
    ],
    "first_page_url": "/?page=1",
    "from": 1,
    "last_page": 2,
    "last_page_url": "/?page=2",
    "links": [
        {
            "url": null,
            "label": "Previous",
            "active": false
        }
    ],
    "next_page_url": "/?page=2",
    "path": "/",
    "per_page": 10,
    "prev_page_url": null,
    "to": 10,
    "total": 11
}